-944.758, 137.583, -45.4022, 0
0.350391, -0.936419, -0.0185689, 202.531
0.936514, 0.350563, -0.00685212, 529.52
-927.554, -167.073, -41.6779, 0
-0.262862, -0.963468, 0.0513175, -479.141
0.964833, -0.262502, 0.0137517, 552.766