-473.821,-9.7148,148.666
-363.492,-8.46076,196.797
-333.645,-29.0528,296.804
-285.255,-23.7491,388.33
-298.027,-15.4337,444.663
-280.316,-15.5344,534.857
-271.64,-18.7645,590.466
-178.356,-18.7056,914.753
-167.45,-17.045,983.864
-159.637,-15.6518,1046.59
-151.287,-19.2775,1109.8
-138.344,-31.4507,1177.6
-116.212,-49.3675,1252.49
